[{
  "name": "琳 缇佩斯",
  "description": "《可穿戴科技》主线作者；表面上是全职魔法☆少女，私底下偶尔写写代码。",
  "avatar": "https://www.gravatar.com/avatar/8ee966e22a9d24169a10e6cea07efa62"
}, {
  "name": "友人♪B",
  "description": "是写手也是 OC，两人一体的创作者镜悬 & BB♪",
  "avatar": "https://www.gravatar.com/avatar/2f3ac69027f995860ebf170508c5bc83"
}, {
  "name": "石倚",
  "avatar": "https://www.gravatar.com/avatar/659103497797c21bf6da465add4b800f"
}, {
  "name": "VV",
  "avatar": "https://www.gravatar.com/avatar/9bd4ef4dc21347ec7489acb9aeb85d6b"
}, {
  "name": "acted咕咕喵",
  "avatar": "https://www.gravatar.com/avatar/d3fe8289fed29cd2a41ff8ecf96328d3"
}, {
  "name": "DrAbyss",
  "avatar": "https://www.gravatar.com/avatar/3fcea3b1d134f59b573e4bc7955bee00"
}, {
  "name": "城岭 樱",
  "description": "城岭神社的守社巫女，也是神社的所有者，M 体质。",
  "avatar": "https://www.gravatar.com/avatar/cca285e7beb153286905bb2a6ffc633f"
}, {
  "name": "王木木",
  "avatar": "https://www.gravatar.com/avatar/5c6b4f051d2d1a08dc9ebb1407b587cb"
}, {
  "name": "0 级骨钉",
  "description": "非常非常非常非常喜欢百合但只会写短篇的小钉。",
  "avatar": "https://www.gravatar.com/avatar/3208d2c31023b276d4c4559d1c583def"
}, {
  "name": "没有茄子",
  "description": "享受焦虑，摄取痛苦，沉迷于前功尽弃，期待着社会性死亡。_(:з」∠)_",
  "avatar": "https://www.gravatar.com/avatar/c475b61f74971ed9f187f1fdd2487c9e"
}, {
  "name": "无公害小蘑菇",
  "description": "如果君落羽出什么事了那一定是我妹的锅。",
  "avatar": "https://www.gravatar.com/avatar/2c60a834b498b841ae196dc95f21b155"
}]
